8.27,14.75
8.25,14.74
8.23,14.73
8.49,14.28
8.70,13.86
9.02,13.46
9.26,13.00
9.52,12.50
9.77,11.99
9.99,11.57
10.22,11.14
10.47,10.65
10.67,10.22
10.85,10.01
11.11,9.57
11.37,9.10
11.61,8.55
11.88,8.08
12.09,7.69
12.33,7.30
12.57,6.85
12.82,6.39
13.03,5.99
13.25,5.56
13.48,5.27
13.63,4.88
13.89,4.46
14.09,3.99
14.30,3.55
14.53,3.20
14.61,2.99
14.76,2.48
14.87,2.24
14.87,2.24
14.87,2.24
14.91,2.04
14.94,2.00
14.94,2.02
14.94,2.02
14.94,2.02
15.17,2.15
15.17,2.15
15.39,2.26
15.39,2.26
15.44,2.23
15.44,2.26
15.26,2.40
14.93,2.76
14.65,3.16
14.39,3.62
14.11,4.03
13.97,4.20
13.77,4.63
13.55,5.08
13.24,5.47
13.06,5.93
12.82,6.35
12.56,6.74
12.37,7.18
12.06,7.61
11.94,7.79
11.70,8.27
11.46,8.80
11.15,9.20
10.92,9.75
10.63,10.16
10.40,10.70
10.26,10.85
10.03,11.39
9.77,11.71
9.59,12.14
9.42,12.57
9.15,12.92
9.06,13.16
8.80,13.61
8.53,14.12
8.39,14.38
8.25,14.65
8.25,14.65
8.25,14.65
8.25,14.65
8.25,14.65
8.25,14.65
8.23,14.77
8.21,14.77
8.21,14.76
8.21,14.76
8.21,14.76
8.23,14.74
8.23,14.74
8.42,14.86
8.42,14.86
8.42,14.86
8.54,14.87
8.53,14.87
8.53,14.87
8.87,14.47
9.17,14.08
9.40,13.57
9.57,13.36
9.80,12.79
10.09,12.34
10.42,11.92
10.46,11.68
10.75,11.25
10.97,10.79
11.15,10.37
11.43,9.99
11.73,9.54
11.98,9.08
12.09,8.80
12.40,8.28
12.62,7.84
12.87,7.37
13.15,6.90
13.46,6.48
13.46,6.24
13.80,5.79
13.96,5.51
14.24,4.97
14.41,4.57
14.71,4.23
15.01,3.75
15.13,3.51
15.44,2.97
15.57,2.72
15.71,2.50
15.71,2.51
15.76,2.46
15.76,2.47
15.75,2.48
15.75,2.48
15.74,2.49
15.45,3.02
15.30,3.24
14.96,3.70
14.62,4.14
14.35,4.51
14.14,4.78
13.82,5.25
13.54,5.67
13.23,6.06
12.91,6.47
12.75,6.65
12.49,7.04
12.19,7.59
11.85,8.05
11.74,8.33
11.43,8.74
11.14,9.30
11.05,9.56
10.68,10.11
10.39,10.59
10.30,10.84
9.99,11.28
9.69,11.79
9.51,12.21
9.36,12.43
9.10,12.90
8.90,13.37
8.57,13.71
8.28,14.11
8.12,14.35
8.12,14.35
8.12,14.35
7.98,14.54
7.97,14.51
7.96,14.51
7.97,14.50
7.97,14.50
8.20,14.49
8.63,14.41
8.83,14.41
8.83,14.41
8.83,14.41
8.83,14.41
8.83,14.41
8.91,14.38
8.91,14.38
8.90,14.40
8.90,14.40
8.67,14.25
8.49,14.09
8.49,14.09
8.49,14.09
8.49,14.09
8.49,14.09
8.49,14.09
8.49,14.09
8.49,14.09
8.49,14.09
8.49,14.09
8.49,14.09
8.49,14.09
8.49,14.09
8.49,14.09
8.49,14.09
8.49,14.09
8.49,14.09
8.49,14.09
8.49,14.09
8.49,14.09
8.49,14.09
8.49,14.09
8.49,14.09
8.49,14.09
8.49,14.09
8.49,14.09
8.49,14.09
8.49,14.09
8.49,14.09
8.49,14.09
8.49,14.09
8.49,14.09
8.49,14.09
8.49,14.09
8.49,14.09
8.49,14.09
8.49,14.09
8.49,14.09
8.49,14.09
8.36,13.93
8.35,13.93
8.34,13.92
8.32,13.93
8.31,13.99
8.41,14.20
8.53,14.58
8.53,14.58
8.53,14.58
8.58,14.75
8.58,14.75
8.58,14.75
8.58,14.75
8.56,14.87
8.59,14.83
8.61,14.85
8.61,14.85
8.62,14.63
8.64,14.43
8.64,14.43
8.61,14.25
8.61,14.25
8.61,14.25
8.62,14.21
8.65,14.22
8.64,14.22
8.51,14.40
8.36,14.60
8.36,14.60
8.36,14.60
8.36,14.60
8.36,14.60
8.36,14.60
8.28,14.75
8.30,14.76
8.28,14.71
8.28,14.71
8.28,14.71
8.28,14.71
8.28,14.69
8.28,14.69
8.28,14.69
8.28,14.69
8.28,14.69
8.28,14.69
8.28,14.69
8.28,14.69
8.28,14.69
8.28,14.69
8.28,14.69
8.28,14.69
8.28,14.69
8.28,14.69
8.28,14.69
8.28,14.69
8.28,14.69
8.28,14.69
8.28,14.69
8.28,14.69
8.28,14.69
8.28,14.69
8.28,14.69
8.28,14.69
8.28,14.69
8.28,14.69
8.28,14.69
8.28,14.69
8.28,14.69
8.06,14.56
8.06,14.56
8.06,14.56
8.06,14.56
8.06,14.56
8.06,14.56
8.06,14.56
8.06,14.56
8.06,14.56
8.06,14.56
8.06,14.56
8.06,14.56
8.06,14.56
8.06,14.56
8.06,14.56
8.06,14.56
7.91,14.57
7.91,14.57
7.91,14.57
8.24,14.22
8.38,13.98
8.67,13.49
9.06,13.16
9.31,12.60
9.45,12.36
9.77,11.80
10.04,11.34
10.17,11.05
10.45,10.52
10.73,10.06
10.87,9.83
11.17,9.29
11.45,8.75
11.60,8.49
11.89,7.99
12.05,7.67
12.31,7.19
12.54,6.76
12.70,6.54
12.94,6.07
13.21,5.60
13.33,5.36
13.60,4.85
13.90,4.36
14.04,4.09
14.37,3.55
14.68,3.06
14.83,2.78
14.87,2.35
14.87,2.35
14.89,2.14
14.89,2.14
14.88,2.05
14.91,2.05
14.91,2.04
14.91,2.04
14.91,2.04
14.91,2.04
15.17,2.14
15.38,2.23
15.38,2.23
15.39,2.22
15.39,2.25
15.39,2.25
15.07,2.59
14.73,3.03
14.44,3.56
14.26,3.77
13.99,4.22
13.66,4.69
13.43,5.18
13.27,5.39
12.98,5.87
12.78,6.32
12.60,6.65
12.36,7.09
12.09,7.70
11.72,8.11
11.58,8.57
11.35,8.88
11.04,9.42
10.86,9.88
10.70,10.09
10.51,10.56
10.20,10.97
9.99,11.45
9.83,11.64
9.53,12.17
9.30,12.61
9.08,13.07
8.84,13.54
8.76,13.77
8.48,14.28
8.38,14.49
8.38,14.49
8.26,14.72
8.26,14.72
8.27,14.71
8.25,14.69
8.25,14.70
8.25,14.70
8.27,14.70
8.27,14.70
8.50,14.85
8.50,14.85
8.52,14.87
8.54,14.83
8.54,14.83
8.71,14.64
8.89,14.42
9.24,13.92
9.48,13.40
9.72,12.93
9.97,12.61
10.22,12.09
10.55,11.63
10.62,11.38
10.87,10.97
11.19,10.55
11.39,10.07
11.56,9.86
11.85,9.34
12.07,8.92
12.32,8.40
12.44,8.20
12.77,7.66
12.94,7.29
13.27,6.79
13.43,6.48
13.50,6.19
13.85,5.72
13.98,5.32
14.38,4.86
14.40,4.63
14.72,4.19
14.96,3.66
15.17,3.42
15.47,2.90
15.63,2.66
15.63,2.66
15.63,2.66
15.69,2.50
15.72,2.51
15.72,2.50
15.72,2.50
15.58,2.75
15.32,3.20
15.02,3.61
14.86,3.80
14.58,4.28
14.25,4.78
13.92,5.25
13.71,5.46
13.37,5.95
13.07,6.42
12.83,6.81
12.50,7.29
12.38,7.52
11.94,8.12
11.64,8.57
11.29,9.08
11.05,9.48
10.89,9.89
10.71,10.11
10.54,10.54
10.26,10.87
9.98,11.32
9.87,11.48
9.63,12.05
9.50,12.25
9.24,12.82
8.88,13.24
8.69,13.68
8.50,13.88
8.20,14.29
8.20,14.29
8.03,14.48
8.03,14.48
8.03,14.48
8.03,14.48
8.03,14.48
8.03,14.48
8.03,14.48
8.03,14.48
8.03,14.48
8.03,14.48
8.03,14.48
8.03,14.48
8.03,14.48
8.03,14.48
8.03,14.48
8.03,14.48
8.03,14.48
8.03,14.48
8.03,14.48
8.03,14.48
8.03,14.48
8.03,14.48
8.03,14.48
8.03,14.48
8.03,14.48
8.03,14.48
8.03,14.48
7.96,14.67
7.95,14.64
7.95,14.61
7.93,14.60
7.93,14.60
8.40,14.50
8.62,14.47
8.84,14.41
8.84,14.41
8.84,14.41
8.84,14.41
8.93,14.40
8.93,14.40
8.91,14.38
8.68,14.23
8.68,14.23
8.48,14.07
8.48,14.07
8.48,14.07
8.48,14.07
8.44,14.03
8.42,14.00
8.43,13.99
8.43,14.01
8.42,14.01
8.51,14.47
8.52,14.69
8.52,14.69
8.52,14.69
8.52,14.69
8.52,14.69
8.51,14.90
8.53,14.91
8.54,14.90
8.54,14.90
8.54,14.90
8.64,14.45
8.64,14.45
8.63,14.21
8.63,14.21
8.63,14.21
8.67,14.16
8.71,14.17
8.60,14.29
8.43,14.50
8.43,14.50
8.28,14.75
8.28,14.75
8.30,14.78
8.27,14.79
8.27,14.79
8.27,14.79
8.27,14.79
8.27,14.79
8.11,14.67
8.11,14.67
8.11,14.67
8.11,14.67
8.11,14.67
8.11,14.67
8.11,14.67
8.11,14.67
8.11,14.67
8.11,14.67
8.11,14.67
8.11,14.67
8.11,14.67
8.11,14.67
8.11,14.67
8.11,14.67
8.11,14.67
8.11,14.67
7.98,14.53
7.98,14.53
7.98,14.51
8.19,14.27
8.47,13.87
8.79,13.40
9.09,13.00
9.30,12.54
9.58,12.08
9.85,11.60
10.08,11.18
10.33,10.75
10.57,10.31
10.81,9.91
11.04,9.48
11.20,9.27
11.43,8.82
11.64,8.41
11.90,7.92
12.13,7.53
12.36,7.12
12.65,6.66
12.92,6.19
13.13,5.77
13.39,5.26
13.63,4.83
13.76,4.53
14.00,4.18
14.18,3.78
14.40,3.38
14.66,2.96
14.77,2.59
14.81,2.39
14.89,2.17
14.89,2.17
14.89,2.17
14.89,2.09
14.92,2.09
14.92,2.09
14.92,2.09
14.92,2.09
15.16,2.19
15.16,2.19
15.37,2.25
15.37,2.25
15.42,2.24
15.43,2.24
15.43,2.24
15.08,2.60
14.74,3.05
14.44,3.49
14.13,3.91
13.89,4.35
13.67,4.87
13.38,5.24
13.19,5.70
12.86,6.13
12.65,6.68
12.35,7.12
12.13,7.60
11.88,8.00
11.75,8.36
11.47,8.73
11.32,9.14
11.16,9.34
10.98,9.84
10.63,10.29
10.48,10.73
10.17,11.11
10.01,11.51
9.73,11.97
9.48,12.41
9.25,12.84
9.01,13.25
8.78,13.67
8.56,14.09
8.39,14.45
8.39,14.45
8.28,14.62
8.28,14.62
8.21,14.73
8.22,14.67
8.20,14.56
8.20,14.53
8.20,14.53
8.21,14.51
8.21,14.51
8.39,14.66
8.39,14.66
8.39,14.66
8.39,14.66
8.39,14.66
8.39,14.66
8.39,14.66
8.39,14.66
8.39,14.66
8.57,14.85
8.58,14.83
8.58,14.85
8.78,14.61
9.12,14.22
9.30,13.72
9.60,13.37
9.79,12.92
10.06,12.50
10.29,12.04
10.50,11.60
10.78,11.20
10.96,10.80
11.20,10.41
11.47,10.04
11.71,9.59
11.98,9.11
12.26,8.62
12.46,8.21
12.66,7.86
12.87,7.47
13.16,7.04
13.39,6.61
13.55,6.18
13.81,5.77
14.02,5.34
14.29,4.98
14.48,4.53
14.79,4.20
14.99,3.80
15.09,3.39
15.39,3.05
15.46,2.84
15.54,2.67
15.72,2.47
15.72,2.47
15.76,2.46
15.76,2.47
15.76,2.47
15.76,2.47
15.52,2.65
15.25,3.07
15.01,3.53
14.70,3.91
14.47,4.30
14.21,4.69
13.93,5.09
13.69,5.42
13.40,5.79
13.12,6.18
12.85,6.53
12.54,6.94
12.29,7.34
11.99,7.77
11.81,8.13
11.54,8.57
11.35,8.98
11.14,9.39
10.93,9.83
10.75,10.27
10.44,10.71
10.26,11.16
9.92,11.57
9.67,12.00
9.46,12.44
9.31,12.81
9.08,13.14
8.88,13.56
8.53,13.96
8.25,14.28
8.17,14.47
8.17,14.47
8.17,14.47
8.17,14.47
8.17,14.47
8.17,14.47
8.17,14.47
8.17,14.47
8.17,14.47
8.17,14.47
8.