8.26,14.51
8.26,14.51
8.26,14.51
8.26,14.51
8.26,14.51
8.50,14.33
8.65,14.10
8.93,13.71
9.20,13.22
9.43,12.76
9.72,12.33
10.00,11.90
10.28,11.49
10.57,11.02
10.86,10.59
11.12,10.12
11.40,9.74
11.67,9.31
11.86,9.08
12.17,8.64
12.42,8.28
12.67,7.91
12.89,7.55
13.11,7.10
13.34,6.67
13.57,6.25
13.74,5.75
14.04,5.31
14.30,4.86
14.39,4.57
14.61,4.20
14.79,3.75
15.00,3.32
15.21,2.99
15.29,2.78
15.29,2.79
15.29,2.78
15.30,2.78
15.06,3.20
14.80,3.63
14.57,4.10
14.34,4.53
14.08,4.93
13.83,5.37
13.62,5.78
13.40,6.16
13.18,6.54
12.95,6.97
12.63,7.48
12.43,7.86
12.19,8.25
11.94,8.68
11.66,9.15
11.38,9.60
11.15,10.03
10.87,10.48
10.62,10.88
10.38,11.25
10.11,11.64
9.90,11.98
9.62,12.43
9.34,12.92
9.13,13.28
9.00,13.46
8.91,13.40
8.94,13.32
9.05,13.15
9.33,12.71
9.61,12.49
9.91,12.08
10.13,11.87
10.45,11.44
10.74,11.02
11.12,10.53
11.41,10.13
11.51,9.98
11.65,9.87
11.65,9.87
11.65,9.87
11.77,9.66
11.84,9.44
11.84,9.44
11.87,9.17
11.87,9.17
11.82,9.00
11.69,8.89
11.74,8.87
11.58,9.05
11.22,9.42
11.00,9.60
11.00,9.60
11.00,9.60
10.91,9.70
10.94,9.64
10.95,9.67
11.18,9.30
11.47,8.97
11.85,8.68
12.13,8.52
12.13,8.52
12.14,8.53
12.14,8.53
12.14,8.53
12.12,8.57
12.40,8.20
12.54,8.00
12.54,8.00
12.54,8.00
12.54,8.00
12.54,8.00
12.62,7.89
12.64,7.91
12.45,8.18
12.20,8.65
12.04,9.10
11.97,9.30
11.97,9.30
11.89,9.51
11.89,9.51
11.89,9.51
11.89,9.51
11.89,9.51
11.89,9.51
11.89,9.51
11.89,9.51
11.89,9.51
11.89,9.51
11.89,9.51
11.89,9.51
11.72,9.73
11.31,9.94
10.95,10.24
10.65,10.63
10.54,10.83
10.46,11.03
10.46,11.03
10.46,11.03
10.46,11.03
10.46,11.03
10.46,11.03
10.46,11.03
10.46,11.03
10.46,11.03
10.46,11.03
10.35,11.14
10.28,11.03
10.30,10.81
10.75,10.51
10.91,10.35
11.25,10.01
11.57,9.71
11.73,9.59
11.73,9.59
11.85,9.42
11.85,9.42
11.85,9.42
11.85,9.42
11.85,9.42
11.91,9.22
11.91,9.22
11.91,9.22
11.92,9.16
11.92,9.15
11.92,9.15
11.92,9.15
11.92,9.15
11.90,9.18
11.86,9.25
11.60,9.66
11.31,10.03
11.07,10.44
10.79,10.92
10.55,11.33
10.25,11.74
9.98,12.13
9.73,12.56
9.44,12.99
9.13,13.44
8.92,13.90
8.68,14.31
8.68,14.31
8.68,14.31
8.57,14.49
8.60,14.47
8.60,14.48
8.61,14.46
8.61,14.46
8.61,14.46
8.61,14.46
8.61,14.46
8.61,14.46
8.61,14.46
8.61,14.46
8.61,14.46
8.61,14.46
8.61,14.46
8.61,14.46
8.62,14.23
8.95,13.89
9.09,13.64
9.38,13.25
9.70,12.82
10.02,12.40
10.29,12.00
10.54,11.63
10.82,11.19
11.02,10.76
11.30,10.39
11.50,9.94
11.62,9.84
11.62,9.84
11.62,9.84
11.75,9.67
11.86,9.14
12.06,8.64
12.25,8.18
12.32,8.04
12.43,7.58
12.50,7.19
12.56,6.95
12.76,6.52
12.95,6.11
13.15,5.71
13.37,5.28
13.45,5.09
13.73,4.71
13.99,4.33
14.33,4.06
14.67,3.63
14.97,3.32
15.22,2.95
15.32,2.78
15.35,2.73
15.37,2.75
15.35,2.76
15.08,3.13
14.66,3.64
14.36,4.04
14.09,4.42
13.78,4.86
13.50,5.29
13.23,5.64
13.04,6.04
12.77,6.36
12.59,6.84
12.30,7.19
12.15,7.61
11.83,7.97
11.68,8.42
11.52,8.60
11.39,8.77
11.29,8.88
11.29,8.88
11.29,8.88
11.29,8.88
11.29,8.88
11.29,8.88
11.29,8.88
11.18,9.41
10.90,9.80
10.66,10.30
10.38,10.68
10.18,11.17
9.88,11.51
9.72,12.01
9.48,12.37
9.26,12.76
9.01,13.16
8.75,13.63
8.52,14.05
8.52,14.05
8.55,14.12
8.56,14.10
8.67,13.89
8.92,13.48
9.16,12.99
9.47,12.61
9.72,12.21
10.03,11.89
10.36,11.52
10.78,10.95
11.07,10.56
11.20,10.37
11.33,10.20
11.33,10.20
11.46,10.04
11.46,10.04
11.47,10.02
11.47,10.02
11.47,10.02
11.47,10.02
11.47,10.02
11.47,10.02
11.47,10.02
11.47,10.02
11.47,10.02
11.47,10.02
11.47,10.02
11.47,10.02
11.47,10.02
11.47,10.02
11.47,10.02
11.47,10.02
11.47,10.02
11.47,10.02
11.47,10.02
11.47,10.02
11.47,10.02
11.47,10.02
11.67,9.58
11.86,9.16
12.05,8.70
12.21,8.47
12.31,8.25
12.43,8.12
12.43,8.12
12.43,8.12
12.44,8.03
12.44,8.03
12.44,8.03
12.44,8.03
12.44,8.03
12.44,8.03
12.44,8.03
12.44,8.03
12.44,8.03
12.42,8.05
12.43,8.06
12.46,8.04
12.46,8.02
12.17,8.03
11.95,8.12
11.77,8.24
11.77,8.24
11.74,8.28
11.74,8.25
11.74,8.25
11.75,8.27
11.68,8.64
11.59,9.23
11.58,9.47
11.39,9.89
11.13,10.23
10.91,10.69
10.62,11.05
10.32,11.53
10.10,11.89
9.83,12.35
9.55,12.76
9.30,13.18
9.03,13.61
8.81,14.00
8.58,14.34
8.50,14.49
8.50,14.49
8.50,14.49
8.50,14.49
8.40,14.62
8.40,14.61
8.39,14.62
8.46,14.43
8.73,14.04
8.98,13.61
9.27,13.22
9.70,12.73
10.03,12.30
10.29,11.90
10.58,11.51
10.83,11.01
11.01,10.82
11.28,10.45
11.28,9.86
11.35,9.64
11.71,9.07
11.84,8.85
12.13,8.25
12.35,7.89
12.61,7.45
12.86,6.97
13.09,6.52
13.19,6.29
13.42,5.87
13.67,5.39
13.89,4.97
14.13,4.54
14.38,4.13
14.57,3.69
14.57,3.69
14.69,3.52
14.69,3.52
14.69,3.52
14.70,3.46
14.71,3.50
14.69,3.54
14.52,3.94
14.28,4.40
14.09,4.89
13.84,5.33
13.59,5.75
13.35,6.20
13.11,6.62
12.86,7.09
12.62,7.53
12.38,7.94
12.14,8.39
11.88,8.86
11.62,9.35
11.38,9.82
11.15,10.23
11.12,10.24
11.16,10.18
11.14,10.13
11.07,9.91
11.07,9.91
11.11,9.67
11.14,9.62
11.52,9.57
11.77,9.51
11.77,9.51
11.88,9.39
11.89,9.41
11.73,9.65
11.46,10.03
11.32,10.28
11.32,10.28
11.20,10.45
11.22,10.44
11.23,10.22
11.26,9.58
11.31,9.26
11.37,9.02
11.38,9.00
11.38,9.01
11.29,9.19
11.03,9.62
10.80,10.07
10.53,10.52
10.27,10.89
10.15,11.20
9.96,11.65
9.75,12.07
9.53,12.47
9.28,12.91
9.08,13.30
8.86,13.77
8.64,14.17
8.52,14.36
8.52,14.36
8.52,14.36
8.41,14.49
8.40,14.48
8.40,14.48
8.40,14.48
8.42,14.46
8.54,14.23
8.81,13.79
9.06,13.37
9.35,13.05
9.64,12.68
9.95,12.35
10.20,11.85
10.44,11.36
10.77,11.07
11.08,10.67
11.36,10.29
11.55,9.84
11.73,9.41
11.98,9.02
12.18,8.61
12.43,8.24
12.59,7.78
12.93,7.39
13.10,6.95
13.37,6.62
13.50,6.41
13.66,5.97
13.97,5.60
14.13,5.12
14.33,4.73
14.53,4.32
14.72,3.89
14.90,3.48
15.13,3.02
15.24,2.75
15.33,2.52
15.33,2.52
15.36,2.25
15.36,2.23
15.41,2.28
15.38,2.34
15.09,2.79
14.83,3.21
14.58,3.63
14.29,4.05
14.05,4.41
13.76,4.80
13.49,5.17
13.21,5.59
13.02,6.02
12.72,6.41
12.52,6.90
12.28,7.26
12.08,7.67
11.76,8.10
11.60,8.61
11.30,8.98
11.10,9.29
11.00,9.60
10.72,9.98
10.46,10.54
10.17,11.00
9.93,11.46
9.64,11.91
9.46,12.42
9.14,12.84
9.05,13.02
8.83,13.46
8.64,13.74
8.44,14.02
8.34,14.19
8.34,14.19
8.23,14.37
8.23,14.37
8.16,14.41
8.13,14.40
8.28,14.23
8.58,13.83
8.87,13.38
9.19,12.96
9.51,12.55
9.82,12.21
10.13,11.81
10.44,11.41
10.80,10.98
11.11,10.62
11.34,10.13
11.47,9.97
11.65,9.52
11.89,9.11
12.12,8.65
12.32,8.22
12.56,7.78
12.83,7.31
12.93,7.08
13.04,6.84
13.04,6.84
13.04,6.84
13.12,6.67
13.12,6.67
13.12,6.67
13.34,6.16
13.51,5.73
13.76,5.34
14.01,4.96
14.26,4.57
14.53,4.14
14.76,3.72
14.89,3.65
14.91,3.65
14.92,3.68
14.76,3.90
14.47,4.36
14.21,4.75
13.96,5.25
13.64,5.80
13.54,6.10
13.24,6.64
13.03,7.01
12.78,7.45
12.55,7.80
12.36,8.06
12.13,8.46
11.94,8.84
11.70,9.26
11.44,9.70
11.16,10.12
10.93,10.60
10.82,10.85
10.55,11.36
10.28,11.78
10.27,11.79
10.17,12.05
10.10,12.32
9.99,12.60
9.90,12.83
9.90,12.83
9.81,13.05
9.81,13.05
9.81,13.05
9.77,13.13
9.72,13.15
9.71,13.15
9.81,12.90
9.92,12.63
10.03,12.42
10.03,12.42
10.18,12.23
10.49,11.72
10.61,11.44
10.85,11.04
11.07,10.60
11.16,10.39
11.26,10.17
11.39,9.93
11.39,9.93
11.42,9.87
11.42,9.87
11.42,9.87
11.42,9.87
11.57,9.72
11.70,9.59
11.70,9.59
11.81,9.45
11.81,9.45
11.81,9.45
11.81,9.45
11.85,9.16
12.21,8.67
12.49,8.10
12.60,7.94
12.74,7.71
12.86,7.50
13.13,7.01
13.28,6.77
13.39,6.59
13.39,6.59
13.47,6.37
13.59,5.89
13.87,5.53
14.16,5.04
14.44,4.66
14.57,4.20
14.57,4.20
14.68,4.09
14.72,4.18
14.73,4.15
14.48,4.64
14.23,5.05
13.96,5.46
13.83,5.76
13.60,6.19
13.33,6.66
13.05,7.14
12.75,7.60
12.63,7.84
12.36,8.38
12.09,8.87
11.82,9.34
11.67,9.63
11.39,10.14
11.26,10.39
11.10,10.59
10.88,11.02
10.74,11.25
10.59,11.49
10.59,11.49
10.59,11.49
10.59,11.49
10.30,11.88
10.15,12.17
9.85,12.73
9.70,13.00
9.61,13.25
9.61,13.25
9.61,13.25
9.24,13.64
8.97,14.04
8.83,14.26
8.67,14.37
8.47,14.40
8.05,14.56
8.05,14.56
8.05,14.56
8.05,14.56
8.05,14.56
7.96,14.61
7.98,14.58
8.19,14.38
8.40,14.18
8.57,13.99
8.61,13.94
8.62,13.93
8.72,14.34
8.72,14.34
8.72,14.44
8.89,14.16
9.05,13.93
9.33,13.44
9.66,13.02
9.98,12.55
10.11,12.32
10.44,11.86
10.75,11.23
10.98,10.82
11.15,10.58
11.32,10.36
11.47,10.18
11.47,10.18
11.47,10.18
11.47,10.18
11.47,10.18
11.55,9.96
11.60,9.84
11.63,9.81
11.38,9.76
11.12,9.66
11.12,9.66
10.97,9.87
10.79,10.08
10.42,10.60
10.16,11.09
10.16,11.09
9.99,11.24
9.99,11.24
9.99,11.24
9.99,11.24
9.91,11.33
9.91,11.34
9.90,11.31
10.26,10.97
10.63,10.58
11.07,10.23
11.25,10.06
11.43,9.95
11.43,9.95
11.43,9.95
11.43,9.95
11.43,9.95
11.43,9.95
11.43,9.95
11.43,9.95
11.61,9.77
11.75,9.60
11.85,9.39
11.85,9.39
12.01,9.10
12.01,8.91
12.01,8.91
12.19,8.60
12.29,8.34
12.31,8.33
12.09,8.30
12.09,8.30
11.93,8.23
11.81,8.43
11.77,8.69
11.65,9.23
11.53,9.74
11.53,9.74
11.53,9.74
11.33,10.26
11.33,10.26
11.21,10.49
11.05,10.64
10.86,10.81
10.65,10.93
10.44,11.03
10.23,11.17
10.23,11.17
10.06,11.38
10.01,11.89
9.88,12.14
9.58,12.55
9.27,12.92
8.95,13.19
8.95,13.19
8.95,13.19
8.83,13.43
8.81,13.35
8.81,13.34
9.16,12.91
9.53,12.47
9.80,12.04
9.94,11.89
10.28,11.40
10.58,10.92
10.91,10.51
11.18,10.14
11.46,9.73
11.62,9.49
11.95,9.03
12.28,8.48
12.42,8.26
12.65,7.75
12.94,7.28
13.07,7.00
13.40,6.60
13.62,6.00
13.99,5.57
14.01,5.32
14.34,4.91
14.53,4.47
14.85,4.13
15.10,3.67
15.14,3.46
15.44,3.03
15.54,2.77
15.70,2.55
15.70,2.55
15.70,2.55
15.70,2.55
15.70,2.55
15.70,2.55
15.70,2.55
15.70,2.55
15.70,2.55
15.70,2.55
15.70,2.55
15.70,2.55
15.70,2.55
15.70,2.55
15.70,2.55
15.70,2.55
15.70,2.55
15.82,2.38
15.83,2.38
15.86,2.38
15.50,2.32
15.25,2.72
15.05,3.22
14.84,3.74
14.58,4.22
14.35,4.69
14.05,5.19
13.87,5.50
13.63,5.99
13.35,6.46
13.24,6.69
12.96,7.22
12.70,7.67
12.58,7.96
12.28,8.47
12.09,8.89
12.10,9.07
11.82,9.61
11.63,9.76
11.39,10.12
11.25,10.39
11.12,10.62
11.12,10.62
11.07,10.72
11.06,10.69
10.99,10.47
10.92,10.27
10.92,10.27
11.07,9.75
11.30,9.25
11.37,9.05
11.37,9.05
11.37,9.05
11.58,8.75
11.79,8.21
11.89,7.94
12.19,7.45
12.30,7.28
12.31,7.22
12.30,7.27
12.51,7.48
12.51,7.48
12.62,7.67
12.59,7.76
12.37,8.15
12.14,8.65
12.03,8.85
11.73,9.40
11.50,9.89
11.32,10.36
11.12,10.63
10.83,11.09
10.65,11.34
10.65,11.34
10.65,11.34
10.65,11.34
10.48,11.51
10.08,11.91
9.74,12.32
9.42,12.74
9.26,12.89
8.98,13.28
8.68,13.69
8.39,14.18
8.39,14.18
8.39,14.18
8.26,14.39
8.25,14.37
8.23,14.32
8.63,13.76
8.82,13.44
9.20,13.04
9.50,12.61
9.83,12.08
10.16,11.57
10.31,11.27
10.63,10.80
10.92,10.44
11.28,9.92
11.35,9.80
11.57,9.49
11.84,9.11
12.13,8.65
12.41,8.25
12.53,8.01
12.75,7.54
13.09,7.06
13.36,6.60
13.55,6.16
13.94,5.65
14.10,5.17
14.31,4.76
14.52,4.29
14.68,4.05
14.86,3.76
15.05,3.35
15.27,2.93
15.46,2.51
15.48,2.51
15.57,2.32
15.57,2.32
15.57,2.32
15.57,2.32
15.57,2.32
15.57,2.32
15.57,2.32
15.57,2.32
15.57,2.32
15.57,2.32
15.57,2.32
15.57,2.32
15.57,2.32
15.57,2.32
15.57,2.32
15.57,2.32
15.57,2.32
15.57,2.32
15.57,2.32
15.58,2.28
15.58,2.31
15.58,2.31
15.36,2.76
15.26,2.98
15.03,3.42
14.78,3.85
14.58,4.29
14.34,4.69
14.12,5.13
13.86,5.60
13.60,6.10
13.34,6.55
13.10,6.99
12.88,7.44
12.64,7.89
12.46,8.30
12.28,8.64
12.13,8.81
11.92,9.30
11.73,9.75
11.72,9.74
11.72,9.74
11.65,9.90
11.65,9.90
11.65,9.90
11.65,9.90
11.65,9.90
11.21,10.21
11.01,10.28
10.56,10.61
10.40,10.79
10.20,11.00
10.10,11.19
10.09,11.23
10.04,11.66
9.97,12.10
9.66,12.51
9.31,12.99
9.08,13.36
8.92,13.62
8.64,14.03
8.42,14.45
8.42,14.45
8.42,14.45
8.26,14.64
8.26,14.62
8.24,14.57
8.36,14.38
8.64,13.93
8.90,13.51
9.18,13.06
9.47,12.62
9.75,12.26
10.05,11.89
10.32,11.42
10.62,10.99
10.91,10.54
11.18,10.15
11.33,9.91
11.47,9.71
11.47,9.71
11.57,9.52
11.56,9.53
11.56,9.53
11.56,9.53
11.56,9.53
11.56,9.53
11.64,9.33
11.64,9.33
11.66,9.16
11.66,9.21
11.66,9.21
11.40,9.58
11.22,9.83
10.89,10.26
10.48,10.64
10.48,10.64
10.27,11.05
10.08,11.28
9.79,11.70
9.64,12.12
9.35,12.47
9.14,12.94
8.90,13.46
8.54,13.84
8.43,13.98
8.24,14.14
8.24,14.14
8.15,14.27
8.21,14.27
8.57,14.52
8.57,14.52
8.57,14.52
8.71,14.62
8.94,14.21
9.21,13.74
9.38,13.55
9.54,13.33
9.61,13.15
9.75,12.95
9.83,12.74
10.11,12.21
10.37,11.75
10.60,11.29
10.80,10.84
11.01,10.38
11.16,9.98
11.38,9.55
11.48,9.35
11.54,9.09
11.76,8.69
11.95,8.30
12.17,7.85
12.39,7.45
12.58,7.05
12.80,6.67
13.01,6.27
13.23,5.87
13.46,5.46
13.57,5.28
13.95,4.87
14.23,4.51
14.53,4.09
14.83,3.66
15.11,3.26
15.24,3.08
15.24,3.08
15.24,3.08
15.40,2.96
15.38,2.97
15.22,3.21
14.97,3.64
14.72,4.02
14.51,4.44
14.27,4.86
14.05,5.30
13.78,5.69
13.62,6.13
13.31,6.56
13.11,6.99
12.87,7.41
12.59,7.77
12.36,8.22
12.17,8.72
11.95,9.12
11.91,9.35
11.91,9.35
11.75,9.44
11.54,9.50
11.02,9.78
10.84,9.96
10.51,10.41
10.25,10.87
10.06,11.32
9.80,11.66
9.61,12.11
9.38,12.48
9.14,12.91
8.87,13.32
8.61,13.85
8.58,13.91
8.78,14.02
9.01,14.05
8.99,14.24
8.99,14.23
8.81,14.38
8.62,14.51
8.62,14.51
8.48,14.66
8.48,14.66
8.42,14.71
8.39,14.69
8.39,14.70
8.64,14.31
8.91,13.82
9.18,13.42
9.47,13.02
9.76,12.63
10.05,12.23
10.27,11.86
10.55,11.46
10.80,11.07
11.07,10.70
11.25,10.30
11.41,10.10
11.64,9.77
11.87,9.37
12.09,8.97
12.24,8.50
12.54,8.16
12.69,7.72
13.01,7.33
13.24,6.94
13.45,6.51
13.61,6.06
13.92,5.64
14.14,5.18
14.36,4.78
14.56,4.40
14.70,4.19
14.96,3.86
15.13,3.48
15.35,3.11
15.44,2.94
15.44,2.94
15.63,2.74
15.65,2.75
15.53,2.69
15.12,2.86
14.90,3.31
14.74,3.74
14.55,4.11
14.30,4.53
14.09,4.96
13.86,5.39
13.60,5.81
13.36,6.23
13.13,6.65
12.88,7.12
12.64,7.53
12.41,7.93
12.20,8.29
11.98,8.67
11.73,9.11
11.49,9.47
11.25,9.93
11.04,10.34
10.82,10.72
10.56,11.19
10.35,11.59
10.12,12.01
9.89,12.46
9.68,12.87
9.46,13.27
9.10,13.87
8.89,14.32
8.73,14.56
8.64,14.75
8.64,14.75
8.60,14.85
8.59,14.85
8.60,14.85
8.60,14.85
8.60,14.85
8.60,14.85
8.60,14.85
8.70,14.64
8.99,14.21
9.20,13.81
9.45,13.42
9.66,13.00
9.97,12.64
10.17,12.19
10.40,11.74
10.70,11.32
10.81,11.13
10.81,11.13
10.81,11.13
10.94,10.66
11.23,10.27
11.46,9.91
11.46,9.91
11.58,9.76
11.74,9.34
12.12,8.90
12.26,8.43
12.58,8.00
12.79,7.52
13.11,7.12
13.23,6.70
13.56,6.34
13.70,5.86
14.01,5.49
14.11,5.32
14.11,5.32
14.18,4.89
14.41,4.50
14.65,4.02
14.76,3.62
14.95,3.24
14.95,3.24
14.98,3.11
14.96,3.22
14.94,3.26
14.76,3.68
14.53,4.14
14.31,4.60
14.05,5.02
13.84,5.39
13.59,5.82
13.33,6.28
13.10,6.70
12.89,7.08
12.66,7.49
12.47,7.84
12.24,8.26
12.05,8.62
11.82,9.00
11.58,9.50
11.35,9.97
11.09,10.36
10.83,10.82
10.58,11.25
10.33,11.63
10.07,12.01
9.84,12.48
9.61,12.88
9.35,13.30
9.13,13.80
8.89,14.19
8.68,14.59
8.68,14.59
8.68,14.59
8.58,14.75
8.61,14.74
8.61,14.74
8.86,14.30
9.12,13.89
9.31,13.44
9.59,13.00
9.84,12.56
10.09,12.16
10.37,11.80
10.61,11.40
10.85,11.00
11.10,10.58
11.33,10.18
11.33,10.18
11.42,10.02
11.42,10.02
11.42,10.00
11.42,10.00
11.42,10.00
11.42,10.00
11.42,10.00
11.52,9.81
11.78,9.41
11.88,9.24
11.88,9.24
11.92,9.18
11.98,9.18
11.98,9.18
11.99,9.27
11.85,9.44
11.71,9.62
11.53,9.84
11.41,9.99
11.40,10.01
11.40,10.01
