0.00000,0.00000,0.00000
0.16667,0.00000,0.34907
0.33333,0.00000,0.69813
0.50000,0.00000,1.04720
0.66667,0.00000,1.39626
0.83333,0.00000,1.74533
1.00000,0.00000,2.09440
1.16667,0.00000,2.44346
1.33333,0.00000,2.79253
1.50000,0.00000,3.14159
1.66667,0.00000,3.14159
1.83333,0.00000,3.14159
2.00000,0.00000,3.14159
2.16667,0.00000,3.14159
2.33333,0.00000,3.14159
2.50000,0.00000,3.14159
2.66667,0.00000,3.14159
2.83333,0.00000,3.14159
3.00000,0.00000,2.79253
3.16667,0.00000,2.44346
3.33333,0.00000,2.09440
3.50000,0.00000,1.74533
3.66667,0.00000,1.39626
3.83333,0.00000,1.04720
4.00000,0.00000,0.69813
4.16667,0.00000,0.34907
4.33333,0.00000,0.00000
4.50000,0.00000,0.00000
4.66667,0.00000,0.00000
4.83333,0.00000,0.00000
5.00000,0.00000,0.00000
