0.00000,1.00000,0.00000
0.10000,1.14820,0.00000
0.20000,1.27360,0.00000
0.30000,1.37740,0.00000
0.40000,1.46080,0.00000
0.50000,1.52500,0.00000
0.60000,1.57120,0.00000
0.70000,1.60060,0.00000
0.80000,1.61440,0.00000
0.90000,1.61380,0.00000
1.00000,1.60000,0.00000
1.10000,1.57420,0.00000
1.20000,1.53760,0.00000
1.30000,1.49140,0.00000
1.40000,1.43680,0.00000
1.50000,1.37500,0.00000
1.60000,1.30720,0.00000
1.70000,1.23460,0.00000
1.80000,1.15840,0.00000
1.90000,1.07980,0.00000
2.00000,1.00000,0.00000
2.10000,0.92020,0.00000
2.20000,0.84160,0.00000
2.30000,0.76540,0.00000
2.40000,0.69280,0.00000
2.50000,0.62500,0.00000
2.60000,0.56320,0.00000
2.70000,0.50860,0.00000
2.80000,0.46240,0.00000
2.90000,0.42580,0.00000
3.00000,0.40000,0.00000
3.10000,0.38620,0.00000
3.20000,0.38560,0.00000
3.30000,0.39940,0.00000
3.40000,0.42880,0.00000
3.50000,0.47500,0.00000
3.60000,0.53920,0.00000
3.70000,0.62260,0.00000
3.80000,0.72640,0.00000
3.90000,0.85180,0.00000
4.00000,1.00000,0.00000
