0.00000,1.00000,0.00000
0.10000,1.14820,0.09983
0.20000,1.27360,0.19867
0.30000,1.37740,0.29552
0.40000,1.46080,0.38942
0.50000,1.52500,0.47943
0.60000,1.57120,0.56464
0.70000,1.60060,0.64422
0.80000,1.61440,0.71736
0.90000,1.61380,0.78333
1.00000,1.60000,0.84147
1.10000,1.57420,0.89121
1.20000,1.53760,0.93204
1.30000,1.49140,0.96356
1.40000,1.43680,0.98545
1.50000,1.37500,0.99749
1.60000,1.30720,0.99957
1.70000,1.23460,0.99166
1.80000,1.15840,0.97385
1.90000,1.07980,0.94630
2.00000,1.00000,0.90930
2.10000,0.92020,0.86321
2.20000,0.84160,0.80850
2.30000,0.76540,0.74571
2.40000,0.69280,0.67546
2.50000,0.62500,0.59847
2.60000,0.56320,0.51550
2.70000,0.50860,0.42738
2.80000,0.46240,0.33499
2.90000,0.42580,0.23925
3.00000,0.40000,0.14112
3.10000,0.38620,0.04158
3.20000,0.38560,-0.05837
3.30000,0.39940,-0.15775
3.40000,0.42880,-0.25554
3.50000,0.47500,-0.35078
3.60000,0.53920,-0.44252
3.70000,0.62260,-0.52984
3.80000,0.72640,-0.61186
3.90000,0.85180,-0.68777
4.00000,1.00000,-0.75680
