--------------------------------
O------------------------------O
-OO--------------------------OO-
---OO----------------------OO---
-----OO------------------OO-----
-------OOO------------OOO-------
----------OOOOOOOOOOOO----------
--------------------------------